<svg viewBox="0 0 24 24">
	<path class="st0" d="M0,0h24v24H0V0z"/>
	<path d="M21,3H3C1.9,3,1,3.9,1,5v12c0,1.1,0.9,2,2,2h5v2h8v-2h5c1.1,0,2-0.9,2-2l0-12C23,3.9,22.1,3,21,3z M21,17H3V5h18V17z
		 M11.3,15.6v-3.9H9.9l2.8-5.3v3.9h1.4L11.3,15.6z"/>
</svg>
